{
  "meta": {
    "pagination": {
      "total": 1361,
      "pages": 69,
      "page": 50,
      "limit": 20,
      "links": {
        "previous": "https://gorest.co.in/public/v1/users?page=49",
        "current": "https://gorest.co.in/public/v1/users?page=50",
        "next": "https://gorest.co.in/public/v1/users?page=51"
      }
    }
  },
  "data": [
    {
      "id": 989,
      "name": "The Hon. Subhashini Menon",
      "email": "the_hon_subhashini_menon@bechtelar.com",
      "gender": "male",
      "status": "active"
    },
    {
      "id": 990,
      "name": "Dandapaani Devar",
      "email": "devar_dandapaani@ohara.com",
      "gender": "female",
      "status": "inactive"
    },
    {
      "id": 991,
      "name": "Aaryan Deshpande",
      "email": "deshpande_aaryan@braun.net",
      "gender": "female",
      "status": "inactive"
    },
    {
      "id": 992,
      "name": "Ambar Acharya",
      "email": "ambar_acharya@reynolds.name",
      "gender": "female",
      "status": "inactive"
    },
    {
      "id": 993,
      "name": "Bhaanumati Bandopadhyay",
      "email": "bhaanumati_bandopadhyay@jacobi-kuvalis.org",
      "gender": "male",
      "status": "active"
    },
    {
      "id": 994,
      "name": "Girika Menon",
      "email": "girika_menon@baumbach.info",
      "gender": "male",
      "status": "inactive"
    },
    {
      "id": 995,
      "name": "Achalesvara Sharma",
      "email": "sharma_achalesvara@smitham-walsh.name",
      "gender": "male",
      "status": "inactive"
    },
    {
      "id": 996,
      "name": "Subhashini Tandon Sr.",
      "email": "sr_tandon_subhashini@sanford.info",
      "gender": "male",
      "status": "inactive"
    },
    {
      "id": 997,
      "name": "Bhasvan Trivedi",
      "email": "trivedi_bhasvan@howell.biz",
      "gender": "female",
      "status": "inactive"
    },
    {
      "id": 998,
      "name": "Eekalabya Varrier",
      "email": "varrier_eekalabya@hessel.name",
      "gender": "male",
      "status": "active"
    },
    {
      "id": 999,
      "name": "Bhargava Khan",
      "email": "bhargava_khan@schimmel-littel.org",
      "gender": "male",
      "status": "active"
    },
    {
      "id": 1000,
      "name": "Baalagopaal Shukla",
      "email": "shukla_baalagopaal@gerlach-mckenzie.biz",
      "gender": "male",
      "status": "active"
    },
    {
      "id": 1001,
      "name": "Kalinda Kakkar",
      "email": "kalinda_kakkar@hegmann-hahn.net",
      "gender": "male",
      "status": "active"
    },
    {
      "id": 1002,
      "name": "Balaaditya Joshi",
      "email": "balaaditya_joshi@smitham.net",
      "gender": "male",
      "status": "inactive"
    },
    {
      "id": 1003,
      "name": "Rajinder Jha",
      "email": "jha_rajinder@daugherty-schmidt.name",
      "gender": "male",
      "status": "active"
    },
    {
      "id": 1004,
      "name": "Sweta Acharya",
      "email": "sweta_acharya@okon.com",
      "gender": "male",
      "status": "inactive"
    },
    {
      "id": 1005,
      "name": "Rahul Deshpande",
      "email": "deshpande_rahul@langosh-miller.name",
      "gender": "female",
      "status": "active"
    },
    {
      "id": 1006,
      "name": "Ganapati Iyer",
      "email": "ganapati_iyer@littel-ziemann.info",
      "gender": "female",
      "status": "inactive"
    },
    {
      "id": 1007,
      "name": "Chandradev Ganaka",
      "email": "chandradev_ganaka@jacobson.biz",
      "gender": "male",
      "status": "active"
    },
    {
      "id": 1008,
      "name": "Chandraswaroopa Bhat II",
      "email": "ii_chandraswaroopa_bhat@hoppe.info",
      "gender": "male",
      "status": "active"
    }
  ]
}